<?xml version="1.0" encoding="utf-8"?>
<!-- Generator: Adobe Illustrator 19.1.0, SVG Export Plug-In . SVG Version: 6.00 Build 0)  -->
<svg version="1.1" id="Layer_2" xmlns="http://www.w3.org/2000/svg" xmlns:xlink="http://www.w3.org/1999/xlink" x="0px" y="0px"
	 viewBox="0 0 27.9 27.9" style="enable-background:new 0 0 27.9 27.9;" xml:space="preserve">
<style type="text/css">
	.st0{fill:#414042;}
	.st1{fill:none;stroke:#414042;stroke-width:2;stroke-miterlimit:10;}
</style>
<g>
	<path class="st0" d="M13.9,2c6.6,0,11.9,5.4,11.9,11.9s-5.4,11.9-11.9,11.9S2,20.5,2,13.9S7.4,2,13.9,2 M13.9,0C6.2,0,0,6.2,0,13.9
		s6.2,13.9,13.9,13.9c7.7,0,13.9-6.2,13.9-13.9S21.6,0,13.9,0L13.9,0z"/>
</g>
<line class="st1" x1="18.6" y1="18.6" x2="9.3" y2="9.3"/>
<line class="st1" x1="18.6" y1="9.3" x2="9.3" y2="18.6"/>
</svg>
